Solar-based Irrigation Analysis
…
summ.by.dist

## # A tibble: 33 x 9
## # Groups:   District [3]
##    District treatment       nobs    min      max  average       sd median    var
##    <chr>    <chr>          <int>  <dbl>    <dbl>    <dbl>    <dbl>  <dbl>  <dbl>
##  1 Bardiya  Areaundersolar     8   1        22      11.1      7.32 1.1 e1 5.36e1
##  2 Bardiya  x.area             8   1.05     62.2    21.4     19.5  1.94e1 3.80e2
##  3 Bardiya  x.ci               8  85       366.    173.      87.3  1.57e2 7.61e3
##  4 Bardiya  x.crop             8   0         8       3.38     2.33 3.5 e0 5.41e0
##  5 Bardiya  x.income           8   0     32000   10208.    9991.   7.13e3 9.98e7
##  6 Bardiya  x.kg               8 355      4685    1973.    1657.   1.33e3 2.75e6
##  7 Bardiya  y.area             8   1.92     64.6    24.7     20.0  1.97e1 4.01e2
##  8 Bardiya  y.ci               8 156.      380.    216.      72.2  1.99e2 5.22e3
##  9 Bardiya  y.crop             8   2        12       8.38     3.66 9   e0 1.34e1
## 10 Bardiya  y.income           8   0    148670   51018.   51440.   3.59e4 2.65e9
## # ... with 23 more rows

summ.by.site

## # A tibble: 77 x 10
## # Groups:   District, Site [7]
##    District Site      treatment  nobs    min    max average     sd median    var
##    <chr>    <chr>     <chr>     <int>  <dbl>  <dbl>   <dbl>  <dbl>  <dbl>  <dbl>
##  1 Bardiya  Bhaisasur Areaunde~     8   1    2.2 e1  1.11e1 7.32e0 1.1 e1 5.36e1
##  2 Bardiya  Bhaisasur x.area        8   1.05 6.22e1  2.14e1 1.95e1 1.94e1 3.80e2
##  3 Bardiya  Bhaisasur x.ci          8  85    3.66e2  1.73e2 8.73e1 1.57e2 7.61e3
##  4 Bardiya  Bhaisasur x.crop        8   0    8   e0  3.38e0 2.33e0 3.5 e0 5.41e0
##  5 Bardiya  Bhaisasur x.income      8   0    3.2 e4  1.02e4 9.99e3 7.13e3 9.98e7
##  6 Bardiya  Bhaisasur x.kg          8 355    4.68e3  1.97e3 1.66e3 1.33e3 2.75e6
##  7 Bardiya  Bhaisasur y.area        8   1.92 6.47e1  2.47e1 2.00e1 1.97e1 4.01e2
##  8 Bardiya  Bhaisasur y.ci          8 156.   3.80e2  2.16e2 7.22e1 1.99e2 5.22e3
##  9 Bardiya  Bhaisasur y.crop        8   2    1.2 e1  8.38e0 3.66e0 9   e0 1.34e1
## 10 Bardiya  Bhaisasur y.income      8   0    1.49e5  5.10e4 5.14e4 3.59e4 2.65e9
## # ... with 67 more rows
…
